<?xml version="1.0" encoding="utf-8"?>
<!-- Generator: Adobe Illustrator 17.0.0, SVG Export Plug-In . SVG Version: 6.00 Build 0)  -->
<!DOCTYPE svg PUBLIC "-//W3C//DTD SVG 1.1//EN" "http://www.w3.org/Graphics/SVG/1.1/DTD/svg11.dtd">
<svg version="1.1" id="Layer_1" xmlns="http://www.w3.org/2000/svg" xmlns:xlink="http://www.w3.org/1999/xlink" x="0px" y="0px"
	 width="128px" height="128px" viewBox="0 0 128 128" enable-background="new 0 0 128 128" xml:space="preserve">
<path d="M16.81,30.24h-1.5v0.02v2.24v67.11h99.55V32.48v-2.24H16.81z M65.08,70.45l10.56-8.05l-0.06,0.06l34.15,34.15H22.07
	l33.45-33.45L65.08,70.45z M77.99,60.61l33.87-25.82v59.7L77.99,60.61z M108.95,33.24L65.08,66.68L21.22,33.24H108.95z M53.11,61.32
	l-34.8,34.8V34.79L53.11,61.32z"/>
</svg>
