<?xml version="1.0" encoding="utf-8"?>
<!-- Generator: Adobe Illustrator 23.0.2, SVG Export Plug-In . SVG Version: 6.00 Build 0)  -->
<svg version="1.1" id="Layer_1" xmlns="http://www.w3.org/2000/svg" xmlns:xlink="http://www.w3.org/1999/xlink" x="0px" y="0px"
	 viewBox="0 0 125 125" style="enable-background:new 0 0 125 125;" xml:space="preserve">
<style type="text/css">
	.st0{fill:none;}
	.st1{fill:none;stroke:#000000;stroke-width:2;stroke-linecap:round;stroke-miterlimit:10;}
</style>
<g>
	<rect class="st0" width="125" height="125"/>
	<circle class="st1" cx="62.5" cy="62.5" r="60"/>
	<circle cx="62.5" cy="62.5" r="7.5"/>
	<polyline class="st1" points="42.5,82.5 62.5,62.5 62.5,15 	"/>
</g>
</svg>
