<?xml version="1.0" encoding="utf-8"?>
<!-- Generator: Adobe Illustrator 17.0.0, SVG Export Plug-In . SVG Version: 6.00 Build 0)  -->
<!DOCTYPE svg PUBLIC "-//W3C//DTD SVG 1.1//EN" "http://www.w3.org/Graphics/SVG/1.1/DTD/svg11.dtd">
<svg version="1.1" id="Layer_1" xmlns="http://www.w3.org/2000/svg" xmlns:xlink="http://www.w3.org/1999/xlink" x="0px" y="0px"
	 width="128px" height="128px" viewBox="0 0 128 128" enable-background="new 0 0 128 128" xml:space="preserve">
<path d="M93.2,27.85C74.94,9.6,45.34,9.6,27.09,27.85c-18.26,18.26-18.26,47.86,0,66.12c18.26,18.26,47.86,18.26,66.12,0
	S111.46,46.11,93.2,27.85z M90.37,91.14c-8.07,8.07-18.81,12.52-30.23,12.52c-11.42,0-22.15-4.45-30.23-12.52
	c-8.07-8.07-12.52-18.81-12.52-30.23s4.45-22.16,12.52-30.23c8.07-8.07,18.81-12.52,30.23-12.52c11.42,0,22.15,4.45,30.23,12.52
	c8.07,8.07,12.52,18.81,12.52,30.23S98.45,83.07,90.37,91.14z"/>
<polygon points="51.54,85.42 32.27,66.15 35.1,63.32 51.54,79.76 89.48,41.82 92.3,44.65 "/>
</svg>
