<?xml version="1.0" encoding="utf-8"?>
<!-- Generator: Adobe Illustrator 17.0.0, SVG Export Plug-In . SVG Version: 6.00 Build 0)  -->
<!DOCTYPE svg PUBLIC "-//W3C//DTD SVG 1.1//EN" "http://www.w3.org/Graphics/SVG/1.1/DTD/svg11.dtd">
<svg version="1.1" id="Layer_1" xmlns="http://www.w3.org/2000/svg" xmlns:xlink="http://www.w3.org/1999/xlink" x="0px" y="0px"
	 width="128px" height="128px" viewBox="0 0 128 128" enable-background="new 0 0 128 128" xml:space="preserve">
<g>
	<path d="M51.65,98.47h-0.56v-7.76h0.56V98.47z"/>
	<path d="M54.55,90.73c0.03,0.01,0.06,0.04,0.09,0.08l5.02,6.72c-0.01-0.11-0.02-0.22-0.02-0.32v-6.51h0.49v7.76h-0.27
		c-0.08,0-0.15-0.04-0.2-0.11l-5.04-6.73c0.01,0.11,0.02,0.21,0.02,0.31v6.53h-0.49v-7.76h0.27C54.48,90.71,54.52,90.72,54.55,90.73
		z"/>
	<path d="M71.48,94.59c0,0.6-0.09,1.14-0.27,1.63c-0.18,0.49-0.43,0.9-0.76,1.25c-0.33,0.35-0.71,0.61-1.17,0.8
		c-0.45,0.19-0.96,0.28-1.51,0.28c-0.54,0-1.04-0.09-1.5-0.28s-0.84-0.45-1.17-0.8c-0.33-0.35-0.58-0.76-0.76-1.25
		c-0.18-0.49-0.27-1.03-0.27-1.63c0-0.6,0.09-1.14,0.27-1.63c0.18-0.49,0.43-0.9,0.76-1.25c0.32-0.35,0.71-0.61,1.17-0.8
		s0.95-0.29,1.5-0.29c0.55,0,1.05,0.09,1.51,0.28c0.45,0.19,0.84,0.46,1.17,0.8c0.32,0.35,0.58,0.76,0.76,1.25
		C71.39,93.45,71.48,93.99,71.48,94.59z M70.9,94.59c0-0.54-0.07-1.03-0.22-1.46c-0.15-0.43-0.36-0.8-0.63-1.1
		c-0.27-0.3-0.6-0.53-0.98-0.69c-0.38-0.16-0.81-0.24-1.28-0.24c-0.46,0-0.88,0.08-1.26,0.24c-0.38,0.16-0.71,0.39-0.99,0.69
		c-0.28,0.3-0.49,0.67-0.64,1.1s-0.23,0.92-0.23,1.46c0,0.54,0.08,1.03,0.23,1.46s0.37,0.79,0.64,1.09c0.28,0.3,0.6,0.53,0.99,0.69
		c0.38,0.16,0.8,0.24,1.26,0.24c0.47,0,0.89-0.08,1.28-0.24c0.38-0.16,0.71-0.39,0.98-0.69c0.27-0.3,0.48-0.66,0.63-1.09
		C70.82,95.62,70.9,95.13,70.9,94.59z"/>
	<path d="M73.7,90.73c0.03,0.01,0.06,0.04,0.09,0.08l5.02,6.72c-0.01-0.11-0.02-0.22-0.02-0.32v-6.51h0.49v7.76h-0.27
		c-0.08,0-0.15-0.04-0.2-0.11l-5.04-6.73c0.01,0.11,0.02,0.21,0.02,0.31v6.53H73.3v-7.76h0.27C73.63,90.71,73.67,90.72,73.7,90.73z"
		/>
	<path d="M86.24,90.71v0.47h-4.08v3.14h3.4v0.45h-3.4V98h4.08v0.47h-4.65v-7.76H86.24z"/>
</g>
<linearGradient id="SVGID_1_" gradientUnits="userSpaceOnUse" x1="5.6984" y1="79.1163" x2="44.4712" y2="79.1163">
	<stop  offset="0" style="stop-color:#808080"/>
	<stop  offset="1" style="stop-color:#000000"/>
</linearGradient>
<path fill="url(#SVGID_1_)" d="M42.17,76.97C21.95,77,5.7,77.95,5.7,79.12c0,1.19,16.72,2.15,37.34,2.15c0.48,0,0.96,0,1.44,0
	L42.17,76.97z"/>
<path fill="#B6C010" d="M45.88,98.09c-0.38,0.23-0.87,0.1-1.09-0.27l-3.91-6.51c-0.23-0.38-0.1-0.87,0.27-1.09l0,0
	c0.38-0.23,0.87-0.1,1.09,0.27L46.15,97C46.38,97.38,46.26,97.87,45.88,98.09L45.88,98.09z"/>
<path fill="#B6C010" d="M40.38,98.09c-0.38,0.23-0.87,0.1-1.09-0.27l-3.91-6.51c-0.23-0.38-0.1-0.87,0.27-1.09l0,0
	c0.38-0.23,0.87-0.1,1.09,0.27L40.65,97C40.87,97.38,40.75,97.87,40.38,98.09L40.38,98.09z"/>
<path fill="#B6C010" d="M34.87,98.09c-0.38,0.23-0.87,0.1-1.09-0.27l-3.91-6.51c-0.23-0.38-0.1-0.87,0.27-1.09l0,0
	c0.38-0.23,0.87-0.1,1.09,0.27L35.14,97C35.37,97.38,35.25,97.87,34.87,98.09L34.87,98.09z"/>
<path fill="#B6C010" d="M106.77,98.09c-0.38,0.23-0.87,0.1-1.09-0.27l-3.91-6.51c-0.23-0.38-0.1-0.87,0.27-1.09l0,0
	c0.38-0.23,0.87-0.1,1.09,0.27l3.91,6.51C107.26,97.38,107.14,97.87,106.77,98.09L106.77,98.09z"/>
<path fill="#B6C010" d="M101.26,98.09c-0.38,0.23-0.87,0.1-1.09-0.27l-3.91-6.51c-0.23-0.38-0.1-0.87,0.27-1.09l0,0
	c0.38-0.23,0.87-0.1,1.09,0.27l3.91,6.51C101.76,97.38,101.64,97.87,101.26,98.09L101.26,98.09z"/>
<path fill="#B6C010" d="M95.75,98.09c-0.38,0.23-0.87,0.1-1.09-0.27l-3.91-6.51c-0.23-0.38-0.1-0.87,0.27-1.09l0,0
	c0.38-0.23,0.87-0.1,1.09,0.27L96.03,97C96.25,97.38,96.13,97.87,95.75,98.09L95.75,98.09z"/>
<g>
	<circle cx="75.86" cy="73.48" r="1.11"/>
	<circle cx="71.14" cy="72.2" r="1.02"/>
	<circle cx="67.78" cy="68.84" r="0.93"/>
	<circle cx="66.5" cy="64.12" r="0.83"/>
	<rect x="88.84" y="45.37" width="4.3" height="35.55"/>
	<path d="M120.31,68.37c0.14-0.22,0.22-0.68,0.22-1.35c0-1.74-0.25-3.29-0.76-4.65c-0.51-1.36-1.21-2.5-2.11-3.43
		c-0.9-0.92-1.97-1.63-3.21-2.12c-1.24-0.49-2.59-0.74-4.05-0.74c-1.77,0-3.36,0.31-4.78,0.93c-1.42,0.62-2.61,1.47-3.6,2.56
		c-0.98,1.09-1.73,2.37-2.26,3.85c-0.52,1.48-0.78,3.07-0.78,4.78c0,2.11,0.29,3.97,0.87,5.6c0.58,1.63,1.39,2.99,2.43,4.09
		c1.04,1.1,2.27,1.94,3.69,2.51c1.42,0.57,2.98,0.86,4.67,0.86c0.88,0,1.78-0.08,2.68-0.23c0.9-0.15,1.77-0.38,2.62-0.69
		c0.84-0.31,1.64-0.7,2.38-1.17c0.74-0.47,1.38-1.03,1.91-1.68l-1.21-1.57c-0.19-0.27-0.47-0.41-0.82-0.41
		c-0.27,0-0.6,0.13-0.98,0.37c-0.38,0.25-0.85,0.52-1.41,0.81c-0.56,0.29-1.24,0.56-2.02,0.81c-0.78,0.25-1.71,0.37-2.79,0.37
		c-1.16,0-2.2-0.19-3.14-0.57c-0.93-0.38-1.74-0.95-2.41-1.71c-0.68-0.76-1.21-1.72-1.59-2.86c-0.39-1.14-0.6-2.49-0.63-4.03h16.27
		C119.89,68.71,120.16,68.6,120.31,68.37z M103.37,66.03c0.29-2.12,1.03-3.79,2.22-4.98c1.19-1.2,2.82-1.8,4.9-1.8
		c0.98,0,1.85,0.17,2.62,0.5c0.76,0.33,1.41,0.8,1.94,1.4c0.53,0.6,0.93,1.32,1.21,2.15c0.27,0.83,0.41,1.74,0.41,2.74H103.37z"/>
	<polygon points="49.04,61.76 35.19,61.76 30.41,52.85 30.41,46.34 26.91,46.34 21.17,35.67 17.74,37.52 43.47,85.4 46.9,83.56 
		37.03,65.19 49.04,65.19 49.04,80.92 53.74,80.92 53.74,46.34 49.04,46.34 	"/>
	<path d="M71.66,55.82c-7.01,0-12.69,5.68-12.69,12.69S64.66,81.2,71.66,81.2c7.01,0,12.69-5.68,12.69-12.69
		S78.67,55.82,71.66,55.82z M79.71,74.26c-0.22-0.17-0.49-0.27-0.79-0.25c-0.61,0.05-1.07,0.59-1.02,1.2
		c0.01,0.12,0.05,0.22,0.09,0.32c-0.65,0.11-1.32,0.18-2,0.18c-0.62,0-1.22-0.06-1.81-0.14c0.02-0.09,0.04-0.18,0.03-0.27
		c-0.05-0.56-0.54-0.98-1.11-0.93c-0.44,0.04-0.79,0.36-0.89,0.76c-1.23-0.39-2.37-0.97-3.39-1.69c0.18-0.19,0.29-0.44,0.27-0.72
		c-0.04-0.51-0.5-0.9-1.01-0.85c-0.29,0.02-0.52,0.18-0.68,0.4c-1.16-1.13-2.07-2.5-2.67-4.01c0.44-0.06,0.77-0.45,0.73-0.9
		c-0.04-0.47-0.45-0.81-0.92-0.77c-0.11,0.01-0.22,0.04-0.31,0.09c-0.18-0.79-0.28-1.62-0.28-2.46c0-0.75,0.1-1.47,0.24-2.18
		c1.82-2.09,4.49-3.42,7.47-3.42c5.46,0,9.91,4.44,9.91,9.91C81.57,70.66,80.87,72.64,79.71,74.26z"/>
</g>
</svg>
