<?xml version="1.0" encoding="utf-8"?>
<!-- Generator: Adobe Illustrator 17.0.0, SVG Export Plug-In . SVG Version: 6.00 Build 0)  -->
<!DOCTYPE svg PUBLIC "-//W3C//DTD SVG 1.1//EN" "http://www.w3.org/Graphics/SVG/1.1/DTD/svg11.dtd">
<svg version="1.1" id="Layer_1" xmlns="http://www.w3.org/2000/svg" xmlns:xlink="http://www.w3.org/1999/xlink" x="0px" y="0px"
	 width="128px" height="128px" viewBox="0 0 128 128" enable-background="new 0 0 128 128" xml:space="preserve">
<path d="M84.81,78.71l-1.98,1.98l-5.88-5.88c4.8-5.57,7.7-12.81,7.7-20.74c0-17.57-14.24-31.81-31.81-31.81S21.04,36.51,21.04,54.07
	c0,17.57,14.24,31.81,31.81,31.81c7.93,0,15.17-2.91,20.74-7.7l5.88,5.88l-1.98,1.98l17.53,17.53l7.32-7.32L84.81,78.71z
	 M25.04,54.07c0-15.33,12.47-27.81,27.81-27.81s27.81,12.47,27.81,27.81c0,15.33-12.47,27.81-27.81,27.81S25.04,69.41,25.04,54.07z"
	/>
</svg>
