<?xml version="1.0" encoding="utf-8"?>
<!-- Generator: Adobe Illustrator 17.0.0, SVG Export Plug-In . SVG Version: 6.00 Build 0)  -->
<!DOCTYPE svg PUBLIC "-//W3C//DTD SVG 1.1//EN" "http://www.w3.org/Graphics/SVG/1.1/DTD/svg11.dtd">
<svg version="1.1" id="Layer_1" xmlns="http://www.w3.org/2000/svg" xmlns:xlink="http://www.w3.org/1999/xlink" x="0px" y="0px"
	 width="128px" height="128px" viewBox="0 0 128 128" enable-background="new 0 0 128 128" xml:space="preserve">
<path d="M73.59,85.65C83.97,82,91.41,72.11,91.41,60.49V44.97c0-14.73-11.94-26.68-26.68-26.68c-14.73,0-26.68,11.94-26.68,26.68
	v15.52c0,11.47,7.24,21.24,17.39,25.02c-16.71,2.32-31.31,11.32-41,24.21h3.78c10.81-13.3,27.3-21.8,45.78-21.8
	s34.96,8.5,45.78,21.8h3.78C104.06,97.09,89.86,88.19,73.59,85.65z M41.05,60.49V44.97c0-13.06,10.62-23.68,23.68-23.68
	s23.68,10.62,23.68,23.68v15.52c0,13.06-10.62,23.68-23.68,23.68S41.05,73.54,41.05,60.49z"/>
</svg>
