<?xml version="1.0" encoding="utf-8"?>
<!-- Generator: Adobe Illustrator 23.0.2, SVG Export Plug-In . SVG Version: 6.00 Build 0)  -->
<svg version="1.1" id="Layer_1" xmlns="http://www.w3.org/2000/svg" xmlns:xlink="http://www.w3.org/1999/xlink" x="0px" y="0px"
	 viewBox="0 0 310 130" style="enable-background:new 0 0 310 130;" xml:space="preserve">
<style type="text/css">
	.st0{fill:#A0314D;}
	.st1{fill:#035735;}
	.st2{fill:#902E1E;}
	.st3{fill:none;stroke:#A0314D;}
</style>
<title>Asset 1</title>
<g>
	<g id="Layer_1-2">
		<path class="st0" d="M57.5,109.2c0.1-0.1,0.2-0.1,0.5-0.1c0.1,0,0.3,0,0.4,0c0.3,0,0.7,0,1.2,0.1c0.5,0.1,1,0.1,1.3,0.1
			s0.7,0,1.1-0.1l1-0.1h0.5c0.2,0,0.3,0.1,0.3,0.2c0,0.2,0,0.1,0,0.1l-0.2,0.2l-0.1,0.2c-0.1,0.1-0.2,0.2-0.3,0.2
			c-1,0.3-1.1,0.4-1.1,2.4c0,0.9,0,1.9,0.1,2.8c0,0.1,0.1,0.2,0.1,0.3c0,0,0,0.1,0,0.1l-0.1,0.2l-0.1,0.2c0,0.1-0.1,0.1-0.2,0.1
			c-0.1,0.1-0.2,0.1-0.3,0.1c-1.3,0.3-2.5,0.9-3.7,1.6c-0.6,0.4-1.4,0.6-2.2,0.5c-4.5,0-7.1-3.2-7.1-8.5c-0.1-2.1,0.5-4.2,1.7-5.9
			c1.5-2.1,3.8-3.3,6.4-3.3c0.4,0,0.8,0,1.2,0.1l1.3,0.2c0.2,0,0.4,0,0.7,0c0.3,0,0.5,0,0.8-0.1l0.2-0.1c0.1,0,0.2-0.1,0.3-0.1h0.1
			c0.1,0,0.1,0,0.2,0c0,0,0.1,0,0.1,0c0.1,0,0.2,0.1,0.2,0.3c0,0.2,0,0.3-0.1,0.5c-0.1,0.5-0.1,1-0.1,1.4c0,0.5,0,1,0.1,1.4
			c0,0.1,0,0.2,0.1,0.3c0,0.1,0,0.2,0,0.3c0,0.1,0,0.3-0.1,0.4l-0.2,0.1l-0.2,0.2c0,0.1-0.1,0.1-0.2,0.1c-0.2,0-0.3-0.1-0.3-0.3
			c-0.2-1.1-0.6-1.8-1.2-2.2c-1.2-0.6-2.4-0.9-3.8-0.9c-3,0-4.7,2.5-4.7,7c0,4.7,2,7.3,5.5,7.3c1.9,0,2.8-0.6,2.8-1.6v-2.4
			c0-1.7-0.3-2.2-1.5-2.2c-0.8-0.1-0.9-0.1-0.9-0.3c0-0.2,0-0.1,0.1-0.2l0.2-0.1L57.5,109.2z"/>
		<path class="st0" d="M88.4,116.2c-1.1,1.2-2.7,1.9-4.3,1.9c-3,0-5-2.5-5-6.4c-0.1-2.1,0.8-4.2,2.4-5.5c1.2-1.2,2.7-1.9,4.4-2
			c2.9,0,5,2.6,5,6.3C90.8,113.1,90.3,114.5,88.4,116.2z M84.6,106c-2.1,0-3.2,1.6-3.2,4.8c0,3.6,1.4,5.7,3.9,5.7
			c2.1,0,3.2-1.5,3.2-4.4C88.5,108.1,87.1,106,84.6,106z"/>
		<path class="st0" d="M112.4,117.6c-0.1,0.1-0.3,0.2-0.5,0.2h-0.4c-0.8-0.1-1.5-0.2-2.3-0.2c-0.7,0-1.3,0.1-2,0.2h-0.4
			c-0.2,0-0.2,0-0.2-0.2c0,0,0-0.1,0-0.1l0.1-0.2l0.1-0.2c0-0.1,0.1-0.1,0.3-0.2c0.7-0.3,1-0.7,1-1.7c0.1-1.7,0.1-4.9,0.1-7v-4
			c0-3.3,0-3.6-0.4-4c-0.2-0.3-0.6-0.3-1.3-0.3c-0.3,0-0.4-0.1-0.4-0.2s0-0.1,0-0.1l0.1-0.1l0.1-0.2c0.1-0.2,0.4-0.2,0.6-0.2h0.9
			c0.9,0,1.8-0.3,2.4-0.9c0.1-0.1,0.2-0.1,0.3-0.1s0.1,0,0.2,0.1l0.1,0.1l0.1,0.1c0.1,0.1,0.1,0.1,0.1,0.2c0,0.1,0,0.3,0,0.4
			c-0.2,1.6-0.3,3.1-0.3,4.7l-0.1,4.1c0,0.8,0,2.1,0,4c0,4.6,0.1,5,1.2,5.2l0.5,0.1c0.3,0,0.4,0.1,0.4,0.2c0,0.1,0,0.1-0.1,0.1
			l-0.1,0.1L112.4,117.6z"/>
		<path class="st0" d="M132.1,109.2v1.9c0,2.9,0,4.1,0.1,4.6c0.1,0.8,0.9,1.4,1.7,1.3h0.2c0.3,0,0.4,0.1,0.4,0.2
			c0,0.1,0,0.1-0.1,0.2l-0.1,0.1l-0.1,0.2c-0.1,0.1-0.2,0.2-0.6,0.2h-0.2l-1.2-0.1c-0.3,0-0.7-0.1-1.2-0.1c-0.8,0-1.5,0-2.3,0.1
			c-0.1,0-0.2,0-0.3,0c-0.2,0-0.3-0.1-0.3-0.2c0-0.1,0-0.1,0.1-0.2l0.2-0.2l0.1-0.2c0.1-0.1,0.1-0.1,0.2-0.1c0.1,0,0.1,0,0.2-0.1
			c0.8-0.2,1-0.8,1-2.4c0-0.4,0-1.1,0.1-2.3c0-0.8,0-1.5,0-2.2v-4.3h-0.5c-0.1,0-0.2,0-0.5,0l0,0c-0.2,0-0.3-0.1-0.3-0.2
			c0-0.1,0-0.1,0.1-0.2l0.1-0.1l0.1-0.2c0.1-0.1,0.2-0.1,0.3-0.2l0.3-0.1c0.3-0.1,0.4-0.4,0.4-0.9v-0.2c0-2,0.2-2.7,1.2-3.8
			c0.5-0.6,1.1-1,1.9-1.3c0.7-0.3,1.4-0.4,2.1-0.4h0.6c0.2,0,0.3,0,0.5,0c0.2,0,0.5,0,0.7-0.2c0.1-0.1,0.2-0.1,0.2-0.1h0.2l0.2-0.1
			l0,0c0.1,0,0.2,0.1,0.2,0.2c0,0.1,0,0.2,0,0.3c-0.1,0.8-0.2,1.7-0.2,2.5c0,0.2,0,0.4,0,0.5v0.2c0,0.1,0,0.2-0.1,0.3l-0.1,0.1
			l-0.1,0.2c0,0.1-0.1,0.1-0.2,0.1s-0.3-0.1-0.3-0.4v-0.2c-0.1-1.4-1-2.3-2.2-2.3s-2,0.9-2,2.9l-0.1,2.4h0.3h1
			c0.7,0,1.3-0.1,1.9-0.5c0.1,0,0.1-0.1,0.2-0.1c0.1,0,0.2,0.1,0.3,0.2c0,0,0,0,0,0c0,0.1,0,0.2-0.1,0.3l-0.2,0.2
			c-0.1,0.1-0.1,0.1-0.2,0.2c-0.3,0.6-0.5,0.7-1,0.7h-2.2L132.1,109.2z"/>
		<path class="st0" d="M182.4,100.3L182.4,100.3c0.2,0,0.2,0.1,0.2,0.4c0,0.2,0,0.3-0.1,0.5c-0.1,0.4-0.1,0.7-0.1,1.1
			c0,0.6,0.1,1.2,0.2,1.8c0,0.2,0,0.4,0,0.5s0,0.3-0.1,0.4l-0.2,0.2l-0.2,0.2c0,0.1-0.1,0.1-0.2,0.1c-0.1,0-0.3-0.1-0.3-0.3
			l-0.2-0.8c-0.4-1.5-1.8-2.3-3.9-2.3c-1.7,0-2.6,0.5-3.3,2.1c-0.6,1.5-0.9,3.1-0.9,4.7c0,4.6,1.9,7.5,4.8,7.5
			c1.5,0,2.8-0.7,4.2-2.1l0.3-0.4c0.1-0.1,0.2-0.2,0.3-0.2c0.1,0,0.2,0.1,0.2,0.3c0,0.1,0,0.2,0,0.3c0,0.1,0,0.2-0.1,0.3v0.2
			c0,0.2-0.2,0.4-0.5,0.7c-0.2,0.1-0.4,0.3-0.7,0.5c-0.4,0.3-0.6,0.5-0.7,0.5c-0.4,0.3-0.9,0.7-1.4,0.9c-0.9,0.5-1.9,0.8-2.9,0.8
			c-3.8,0-6.3-3.4-6.3-8.7c0-3.3,1.2-5.9,3.6-7.7c1.1-0.9,2.4-1.4,3.9-1.4c0.3,0,0.7,0,1,0.1l1.1,0.2c0.2,0,0.3,0,0.5,0.1
			c0.3,0,0.5,0,0.7-0.2c0.1-0.1,0.1-0.1,0.2-0.1h0.2L182.4,100.3z"/>
		<path class="st0" d="M204.8,117.6c-0.1,0.1-0.3,0.2-0.5,0.2H204c-0.8-0.1-1.5-0.2-2.3-0.2c-0.7,0-1.3,0.1-2,0.2h-0.4
			c-0.2,0-0.2,0-0.2-0.2c0,0,0-0.1,0-0.1l0.1-0.2l0.1-0.2c0-0.1,0.1-0.1,0.3-0.2c0.8-0.3,1-0.7,1-1.7c0.1-1.7,0.1-4.9,0.1-7v-4
			c0-3.3,0-3.6-0.4-4c-0.2-0.3-0.6-0.3-1.3-0.3c-0.3,0-0.4-0.1-0.4-0.2s0-0.1,0-0.1l0.1-0.1l0.1-0.2c0.1-0.2,0.4-0.2,0.6-0.2h0.9
			c0.9,0,1.8-0.3,2.4-0.9c0.1-0.1,0.2-0.1,0.3-0.1c0.1,0,0.1,0,0.2,0.1l0.1,0.1l0.1,0.1c0.1,0.1,0.1,0.1,0.1,0.2
			c0,0.1,0,0.3-0.1,0.4c-0.2,1.6-0.3,3.1-0.3,4.7l-0.1,4.1c0,0.8,0,2.1,0,4c0,4.6,0.1,5,1.2,5.2l0.5,0.1c0.3,0,0.4,0.1,0.4,0.2
			c0,0.1,0,0.1-0.1,0.1l-0.1,0.1L204.8,117.6z"/>
		<path class="st0" d="M229.5,115.6l-1,0.7l-1.1,1c-0.6,0.6-1.4,0.9-2.2,0.8c-2.1,0-3.2-1.3-3.2-3.7V114c0.1-1.3,0.1-3.3,0.1-4.5
			c0-3.6-0.1-3.8-1.7-3.9c-0.2,0-0.3-0.1-0.3-0.2c0,0,0-0.1,0.1-0.1l0.1-0.2l0.1-0.2c0.1-0.1,0.3-0.1,0.4-0.1h0.1
			c0.7,0,1.1,0.1,1.3,0.1c0.6,0,1.2-0.2,1.8-0.6c0.1-0.1,0.1-0.1,0.2-0.1c0.1,0,0.1,0,0.2,0.1l0.1,0.1l0.2,0.1c0,0,0,0,0,0.1v0.1
			l-0.1,0.9c0,0.1,0,0.7,0,2v2.3v2.1c0,3.9,0.2,4.5,1.8,4.5c1.1,0,2.5-1.1,3-2.4c0.3-0.8,0.4-1.1,0.4-3.2c0-1.4,0-2.9-0.1-4.3
			c-0.1-0.5-0.6-0.8-1.1-0.8H228c-0.2,0-0.3-0.1-0.3-0.3c0-0.1,0-0.1,0.1-0.2l0.2-0.1l0.1-0.2c0-0.1,0.2-0.1,0.4-0.1
			c0.1,0,0.2,0,0.3,0c0.3,0,0.7,0,0.9,0c0.4,0,0.8,0,1.2-0.2l0.8-0.4c0.1,0,0.2,0,0.3-0.1c0,0,0.1,0,0.1,0l0.1,0.1l0.2,0.1
			c0.1,0.1,0.1,0.1,0.1,0.2v0.2c-0.2,1.7-0.2,3.5-0.2,5.2v2.6c0,3.2,0.1,3.5,0.7,3.5c0.2,0,0.3-0.1,0.5-0.1l0.4-0.2
			c0.1,0,0.2,0,0.2,0c0.1,0.1,0.2,0.1,0.2,0.2c0,0,0,0.1,0,0.1c0,0.2-0.1,0.2-0.1,0.2v0.2c0,0.2-0.1,0.1-0.2,0.2s-0.1,0.1-0.2,0.1
			c-0.6,0.2-1.1,0.5-1.6,0.9c-0.6,0.4-0.8,0.5-1.1,0.5c-0.7,0-1.2-0.9-1.2-2.2c0-0.2,0-0.3,0-0.5L229.5,115.6z"/>
		<path class="st0" d="M254.5,105.4c1.4-1.1,1.7-1.2,2.6-1.2c2.6,0,4.4,2.3,4.4,5.7c0,4.3-3,8.3-6.2,8.3c-0.8,0-1.7-0.2-2.4-0.6
			c-0.1-0.1-0.3-0.1-0.4-0.2c-0.1-0.1-0.3-0.1-0.4-0.1c-0.2,0-0.4,0.1-0.7,0.4c-0.2,0.2-0.4,0.3-0.6,0.3l0,0h-0.2h-0.2
			c-0.1-0.1-0.1-0.1-0.1-0.2c0-0.1,0.1-0.3,0.3-0.9c0.3-0.7,0.4-1.3,0.4-4l0-4.9c0-1.3,0-2.5,0-3.7c0-1.3,0-2.2,0-2.6
			c0-1.1-0.4-1.7-1.2-1.7h-0.4c-0.4,0-0.5-0.1-0.5-0.2s0-0.1,0.1-0.2l0.1-0.1l0.2-0.2c0.1-0.1,0.2-0.1,0.4-0.1h0.9
			c0.9,0,1.8-0.3,2.5-0.9c0.1-0.1,0.2-0.1,0.3-0.1c0.1,0,0.1,0,0.1,0l0.1,0l0.2,0.1c0.1,0.1,0.1,0.1,0.1,0.2c0,0.2,0,0.3,0,0.5
			c0,0.2-0.1,0.4-0.1,0.8s0,0.6,0,0.8l-0.1,5.6C253.7,106,253.8,105.9,254.5,105.4z M253.3,114.6c0,1.5,0.9,2.3,2.3,2.3
			c1.9,0,3.3-2.6,3.3-6c0-3-1.1-4.9-2.9-4.9c-1.5,0-2.7,1.1-2.8,2.6c0,0,0,0.1,0,0.1L253.3,114.6z"/>
		<path class="st1" d="M24.8,83.1c2.9-8.1,4.9-14.2,5.4-16.3c0.5-2.3,0.6-2.4,1.5-2.4c0.2,0,0.5,0,0.7,0c1,0.1,2.1,0.2,3.2,0.2
			c0.9,0,1.9-0.1,2.9-0.2c0.2,0,0.3,0,0.5,0c0.2,0,0.4-0.1,0.6,0c0.6,0,0.8,0.1,0.8,0.5c0,0.2,0,0.2-0.1,0.3L40,65.4l-0.3,0.4
			c-0.2,0.2-0.4,0.3-0.6,0.4l-0.4,0.2c-0.8,0.4-1.2,1.3-1.2,2.1c0,1.1,0.3,4.1,1,9.7c0.6,4.8,1.2,9.3,1.5,10.9
			c0.4,2,1.2,2.9,2.9,3.2c0.5,0.1,0.7,0.3,0.7,0.6c0,0.1,0,0.1,0,0.2l-0.3,0.3L43,93.8c-0.3,0.3-0.7,0.4-1.2,0.4c-0.2,0-0.4,0-0.6,0
			c-1.4-0.1-2.8-0.2-4.2-0.2c-2,0-4.5,0.1-5.8,0.2h-0.5c-0.5,0-0.7-0.1-0.7-0.4c0-0.4,0-0.2,0.1-0.4l0.3-0.3l0.2-0.4
			c0.2-0.2,0.4-0.3,0.6-0.4c1.6-0.7,2-1.5,2-3.6c0-1.1-0.1-2.6-0.4-5.8c-0.3-2.7-0.5-5-0.8-7c-0.3-2.7-0.4-3.6-0.4-4
			c0-0.2,0-0.4,0-0.6c-0.1,0.4-0.2,0.8-0.3,1.1c-0.7,1.8-2,5.9-3.1,9.3l-1.8,5.6c-0.4,1.1-0.7,2.1-0.9,3.2c-0.2,1.2-0.4,1.5-1.6,2.1
			c-0.7,0.4-1.4,0.9-1.9,1.6c-0.3,0.4-0.5,0.6-0.8,0.6c-0.5,0-0.7-0.3-0.9-1.2c-0.1-0.3-0.2-0.6-0.3-0.9l-1.3-4
			c-1.6-4.7-2.5-7.6-2.9-8.7c-2.5-6.7-2.7-7.5-2.9-8.3c0-0.1,0-0.3-0.1-0.4v0.4c0,0.2,0,0.5-0.1,0.9c-0.2,1.4-0.4,3.8-0.8,7.1
			l-0.4,5.1c-0.1,1.5-0.2,2.9-0.2,3.6c0,2.6,0.8,3.7,2.9,3.9c1.2,0.1,1.3,0.1,1.3,0.5c0,0.1,0,0.2-0.1,0.3l-0.3,0.3L15,93.9
			c-0.3,0.2-0.7,0.3-1.1,0.2c-0.2,0-0.4,0-1.3,0S10.9,94,10,94c-0.6,0-1.7,0-3.3,0.1c-0.3,0-0.6,0-0.8,0H5.6C5.2,94.1,5,94,5,93.7
			c0-0.1,0-0.2,0-0.2l0.3-0.4l0.2-0.4c0-0.1,0.2-0.2,0.4-0.3c1.5-0.7,2-1.8,2.5-5.7c0.4-2.5,0.9-7.1,1.4-11.8
			c0.4-3.5,0.5-5.1,0.5-6.3c0-1.6-0.5-2.3-1.9-2.5c-0.9,0-1.2-0.2-1.2-0.6c0-0.1,0-0.2,0.1-0.3l0.4-0.3l0.4-0.4
			c0.2-0.2,0.4-0.3,0.7-0.3h0.7c0.3,0.1,0.7,0.1,1,0.1c0.7,0.1,1.4,0.1,2.2,0.1c0.9,0,1.7,0,2.6-0.1c0.3-0.1,0.6-0.1,0.9-0.1
			c0.1,0,0.3,0,0.4,0c0.5,0,0.7,0.3,0.9,1.3c0.3,1.2,0.6,2.4,1.1,3.6c0.1,0.3,0.5,1.6,1.3,4.1c0.9,2.8,2.5,7.5,3.5,10.3l0.6,1.6
			L24.8,83.1z"/>
		<path class="st1" d="M61.1,92c-2.5,1.9-4.9,2.8-7.3,2.8c-5.4,0-9.2-4.6-9.2-11.1c-0.1-3.1,1-6.2,3.1-8.5c2.9-3.3,6.5-5.2,9.8-5.2
			c5.4,0,9.3,4.6,9.3,10.9C66.7,85.7,65,89,61.1,92z M55,74c-3,0-4.7,2.4-4.7,6.9c0,5.8,2.4,9.6,6.1,9.6c2.8,0,4.6-2.6,4.6-7.1v-0.3
			C60.9,77.6,58.5,74,55,74z"/>
		<path class="st1" d="M81.6,93.4c-0.9,0.9-2.2,1.4-3.4,1.2c-4.1,0-6.2-2.1-6.2-6.3v-1c0-1.6,0.1-2.9,0.1-4V78c0-4-0.4-4.6-2.8-4.8
			c-0.7,0-0.9-0.2-0.9-0.5s0-0.2,0.1-0.3l0.5-0.4l0.4-0.4c0.2-0.2,0.4-0.2,0.7-0.2h0.1l0.8,0.1c0.2,0,0.5,0.1,0.7,0
			c1.5,0,3.1-0.3,4.5-0.8l0.8-0.4c0.1-0.1,0.3-0.1,0.4-0.1c0.3,0,0.6,0.2,0.8,0.4c0.1,0.1,0.1,0.3,0.1,0.4v0.2
			c-0.3,1.8-0.3,3.2-0.3,7.3c0,5.9,0,8.4,0.2,9.7c0.2,1.6,1,2.6,2.3,2.6c1.2,0,3.2-1.4,4.2-3.1c0.6-0.9,0.7-1.8,0.7-6v-4.9
			c0-2.7-0.5-3.3-2.9-3.6c-0.6,0-0.9-0.2-0.9-0.6c0-0.1,0.1-0.3,0.2-0.4l0.4-0.4l0.3-0.3c0.2-0.2,0.5-0.3,0.8-0.2h0.1l0.8,0.1h1
			c1.7,0,3.3-0.3,4.8-1.1c0.2-0.1,0.3-0.2,0.5-0.2c0.2,0,0.4,0.1,0.5,0.2l0.3,0.2c0.1,0.1,0.2,0.3,0.1,0.4c0,0.1,0,0.3,0,0.4
			c-0.3,2.4-0.3,4.9-0.3,7.4v0.8l0,5.5c0,4.4,0.3,5.5,1.6,5.5c0.4,0,0.8-0.1,1.2-0.3c0.1,0,0.2-0.1,0.4,0c0.3,0,0.5,0.2,0.5,0.5
			c0,0.2,0,0.2,0,0.2l-0.2,0.4l-0.2,0.4c-0.1,0.3-0.3,0.4-1,0.8l-0.8,0.4l-0.8,0.5l-1,0.7c-0.6,0.4-1.2,0.6-1.9,0.7
			c-1.8,0-2.9-1.4-3.2-4.3C84.1,91.3,82.8,92.3,81.6,93.4z"/>
		<path class="st1" d="M109.9,70.7c0.7-0.5,1.7-0.8,2.6-0.7c1.6-0.1,3.2,0.5,4.3,1.6c1.1,1.1,1.4,2.4,1.4,5.4v0.7c0,0.9,0,1.8,0,2.8
			v4c0,7,0.2,7.6,2.5,7.8c0.9,0.1,1.1,0.2,1.1,0.5c0,0.2,0,0.2-0.1,0.3l-0.4,0.3l-0.3,0.3c-0.2,0.2-0.6,0.3-0.9,0.3
			c-0.3,0-0.6,0-0.9,0c-1.4-0.1-2.6-0.2-3.9-0.2c-1.4,0-2.9,0.1-4.3,0.3h-0.5c-0.3,0-0.5-0.1-0.5-0.3c0-0.1,0.1-0.2,0.1-0.3l0.2-0.4
			l0.2-0.4c0-0.2,0.1-0.2,0.2-0.3c0.1-0.1,0.1-0.1,0.3-0.2c1.1-0.7,1.1-1,1.2-5.3l0-4.4c0-0.7,0-1.4,0-2c0-5.3-0.5-6.5-2.8-6.5
			c-2.7,0-4.6,2.2-4.6,5.4v4.3l0,4.4c0,3.4,0.6,4.3,2.7,4.4c0.6,0,0.9,0.2,0.9,0.4c0,0.3,0,0.2-0.1,0.3l-0.3,0.3l-0.4,0.3
			c-0.2,0.2-0.4,0.3-0.9,0.3c-0.3,0-0.7,0-1,0c-1.7-0.1-3.1-0.2-4.1-0.2c-1.4,0-2.4,0-4.5,0.2h-0.3c-0.4,0-0.6-0.1-0.6-0.4
			c0-0.3,0-0.2,0.1-0.3l0.3-0.4l0.2-0.4c0.1-0.1,0.2-0.2,0.6-0.4c1.3-0.5,1.6-1.2,1.6-4.4l0.1-4.5c0-1.6,0-3.5,0-5.6
			c0-4-0.2-4.5-2-4.7c-0.5,0-0.8-0.2-0.8-0.5c0-0.1,0.1-0.2,0.2-0.3l0.4-0.3l0.4-0.4c0.2-0.2,0.5-0.3,0.8-0.3H99
			c1.6,0,3.1-0.4,4.4-1.2c0.2-0.1,0.3-0.2,0.5-0.3c0.1-0.1,0.3-0.1,0.4-0.1c0.2,0,0.4,0.1,0.5,0.2c0.1,0.1,0.2,0.1,0.3,0.2
			c0.1,0.1,0.1,0.3,0.1,0.4v0.3c-0.2,0.8-0.2,1.7-0.3,2.5C106.9,72.6,108,72,109.9,70.7z"/>
		<path class="st1" d="M132.3,70.6c0.3,0,0.7,0,1,0c1.2,0.1,2.5-0.2,3.6-0.7c0.5-0.3,0.7-0.3,0.9-0.3c0.4,0,0.6,0.2,0.6,0.5
			c0,0.3-0.2,0.6-0.4,0.8l-0.5,0.6l-0.7,0.8c-0.4,0.6-1,0.9-1.7,0.8h-0.1l-1.2,0l-1.6,0h-0.6c0,1.9,0,2.3,0,5.3v7.9
			c0,3,0.8,4.3,2.4,4.3c1,0,1.8-0.4,3.2-1.9c0.5-0.4,0.7-0.6,1-0.6c0.3,0,0.5,0.2,0.5,0.4c0,0.2,0,0.3-0.1,0.4
			c-0.1,0.2-0.2,0.4-0.2,0.6c-0.3,1-0.3,1.1-1,1.6l-1.3,1l-1.2,1c-1.1,0.9-2.5,1.4-3.9,1.3c-3.4,0-5.4-2-5.4-5.5
			c0-0.7,0-1.6,0.1-2.7c0-1.4,0.1-3.5,0.1-6.4l0-5.5l0-1.5h-0.6c-0.3,0-0.5,0-1.2,0h-0.2c-0.5,0-0.7-0.1-0.7-0.5
			c0-0.2,0-0.2,0.1-0.3l0.4-0.4l0.2-0.4c0.1-0.2,0.4-0.4,0.6-0.5l0.6-0.2c2-0.8,3.6-2.3,4.5-4.2l0.4-0.6c0.1-0.2,0.2-0.4,0.4-0.6
			c0,0,0.2,0,0.4-0.2L131,65c0.1-0.1,0.2-0.1,0.4-0.1c0.3,0,0.4,0.2,0.4,0.6v0.3c-0.2,1.4-0.3,2.8-0.3,4.2v0.7L132.3,70.6z"/>
		<path class="st1" d="M153.6,78.4v-0.6c0-3.3-1.3-4.7-4.3-4.7c-2.5,0-4.4,1.3-5.7,3.9c-0.3,0.6-0.5,0.9-0.7,0.9l-0.4,0.1l-0.4,0.3
			c0,0-0.1,0-0.2,0c-0.3,0-0.5-0.1-0.5-0.4c0-0.2,0-0.3,0.1-0.4c0.6-2,0.9-4,1-6c0-0.8,0-0.8,0.5-1.2l0.3-0.2c0-0.1,0.2,0,0.3-0.1
			c0.1,0,0.2,0,0.3,0.1l0.4,0.3c0.3,0.3,0.7,0.4,1.2,0.4c0.4,0,0.8,0,1.2-0.1l2.7-0.4c1-0.2,2-0.3,3.1-0.3c4.5,0,7.1,2.4,7.1,6.5
			c0,0.3,0,0.8,0,1.6c0,2-0.1,5.7-0.2,8V87c0,2.6,0.4,3.5,1.7,3.5c0.3,0,0.6-0.1,0.8-0.2c0.2-0.1,0.3-0.2,0.5-0.2c0.1,0,0.1,0,0.2,0
			c0.2,0,0.5,0.2,0.5,0.4c0,0,0,0.1,0,0.1c0,0.1,0,0.3-0.1,0.4l-0.2,0.3l-0.2,0.4c0,0.2-0.3,0.4-0.7,0.6l-0.7,0.4l-0.9,0.6l-0.9,0.8
			c-0.5,0.5-1.2,0.8-1.9,0.8c-1.9,0-3.1-1.4-3.6-4c-0.9,0.5-1.7,1.1-2.5,1.8c-2.4,2-2.7,2.1-4.5,2.1c-3.9,0-6.6-2.5-6.6-6.2
			c0-3.6,2.6-6.5,6.9-7.8c2.1-0.6,4.4-1,6.6-1.2L153.6,78.4z M145.9,87.6c0,1.9,1.2,3.1,2.8,3.1c1.4-0.1,2.8-0.9,3.5-2.1
			c0.8-1.4,1.1-2.4,1.1-5.3l0-1.6C148.5,82.3,145.9,84.3,145.9,87.6L145.9,87.6z"/>
		<path class="st1" d="M175.9,93.8c-0.2,0.2-0.6,0.4-0.9,0.4h-0.6c-0.5,0-1.1-0.1-1.9-0.1c-1.1,0-2-0.1-2.6-0.1s-1.6,0-2.9,0.1
			c-0.4,0-0.9,0-1.3,0.1c-0.4,0-0.8,0-0.9,0c-0.4,0-0.5-0.1-0.5-0.4c0-0.3,0-0.2,0.1-0.3l0.2-0.3l0.2-0.3c0.2-0.2,0.4-0.4,0.6-0.4
			c1.3-0.5,1.6-1.1,1.6-3.6c0-0.9,0-1.8,0-2.8l0-2.9l0-4.8v-0.6c0-3-0.1-3.4-0.7-3.8c-0.4-0.3-0.5-0.3-1.5-0.4
			c-0.4,0-0.6-0.2-0.6-0.4s0-0.2,0.1-0.3l0.3-0.3l0.4-0.4c0.3-0.2,0.6-0.3,0.9-0.3h1c1.5,0,2.9-0.4,4.2-1.2l0.7-0.4
			c0.1-0.1,0.3-0.1,0.4-0.1c0.3,0,0.6,0.2,0.8,0.4c0.1,0.1,0.1,0.3,0.1,0.4v0.3c-0.3,1.5-0.3,2.4-0.4,5.7l0,5l0,4.3
			c0,5.4,0.4,6.2,2.8,6.4c0.6,0,0.8,0.2,0.8,0.4c0,0.1,0,0.1,0,0.2l-0.3,0.3L175.9,93.8z M168,67c-0.3-0.4-0.7-0.8-1-1.2
			c-0.1-0.2-0.3-0.3-0.4-0.5c-0.1-0.2-0.1-0.4-0.1-0.6c0-0.3,0.1-0.5,0.2-0.8c0.2-0.2,0.3-0.4,0.5-0.5c0.1-0.1,0.5-0.4,1.1-0.9
			c1.1-1,1.4-1.2,1.9-1.2c0.6,0,1.1,0.3,2,1.3c1.1,1.2,1.3,1.6,1.3,2.1s-0.3,1.2-1.3,2.3c-1,1.1-1.7,1.6-2.2,1.6
			c-0.4,0-0.8-0.2-1-0.6L168,67z"/>
		<path class="st1" d="M191.7,70.7c0.7-0.5,1.7-0.8,2.6-0.7c1.6-0.1,3.1,0.5,4.3,1.6c1.1,1.1,1.4,2.4,1.4,5.4v0.7c0,0.9,0,1.8,0,2.8
			v4c0,7,0.2,7.6,2.5,7.8c0.9,0.1,1.1,0.2,1.1,0.5c0,0.2,0,0.2-0.1,0.3l-0.4,0.3l-0.3,0.3c-0.2,0.2-0.6,0.3-0.9,0.3
			c-0.3,0-0.6,0-0.9,0c-1.4-0.1-2.6-0.2-3.9-0.2c-1.4,0-2.9,0.1-4.3,0.3h-0.5c-0.3,0-0.5-0.1-0.5-0.3c0-0.1,0.1-0.2,0.1-0.3l0.2-0.4
			l0.2-0.4c0-0.2,0.1-0.2,0.2-0.3c0.1-0.1,0.1-0.1,0.3-0.2c1.1-0.7,1.1-1,1.2-5.3l0-4.4c0-0.7,0-1.4,0-2c0-5.3-0.5-6.5-2.8-6.5
			c-2.7,0-4.6,2.2-4.6,5.4v4.3l0,4.4c0,3.4,0.6,4.3,2.7,4.4c0.6,0,0.8,0.2,0.8,0.4c0,0.3,0,0.2-0.1,0.3l-0.3,0.3l-0.4,0.3
			c-0.2,0.2-0.4,0.3-0.9,0.3c-0.3,0-0.7,0-1,0c-1.7-0.1-3.1-0.2-4.1-0.2c-1.4,0-2.4,0-4.5,0.2h-0.3c-0.4,0-0.6-0.1-0.6-0.4
			c0-0.3,0-0.2,0.1-0.3l0.3-0.4l0.2-0.4c0.1-0.1,0.2-0.2,0.6-0.4c1.3-0.5,1.6-1.2,1.6-4.4l0.1-4.5c0-1.6,0-3.5,0-5.6
			c0-4-0.2-4.5-2-4.7c-0.5,0-0.8-0.2-0.8-0.5c0-0.1,0.1-0.2,0.2-0.3l0.4-0.3l0.4-0.4c0.2-0.2,0.6-0.3,0.9-0.3h0.8
			c1.6,0,3.1-0.4,4.4-1.2c0.2-0.1,0.3-0.2,0.5-0.3c0.1-0.1,0.3-0.1,0.4-0.1c0.2,0,0.4,0.1,0.5,0.2c0.1,0.1,0.2,0.1,0.3,0.2
			c0.1,0.1,0.1,0.3,0.1,0.4v0.3c-0.1,0.8-0.2,1.7-0.3,2.5C188.7,72.6,189.7,72,191.7,70.7z"/>
		<path class="st1" d="M220.5,86.7c0.1-0.3,0.2-0.6,0.4-1l1.6-4.3l1.8-5.1c1.7-4.9,2.1-6.3,2.1-7.8c0-1.4-0.6-2-2.1-2.2l-0.7-0.1
			c-0.3,0-0.6-0.2-0.6-0.5c0-0.3,0-0.2,0.1-0.3l0.4-0.3l0.4-0.4c0.2-0.2,0.5-0.3,0.9-0.2c0.2,0,0.4,0,0.6,0c1.5,0.1,2.8,0.2,3.8,0.2
			c1,0,2,0,3.1-0.2c0.3,0,0.6,0,0.9,0c0.4,0,0.7,0.2,0.7,0.4s0,0.2,0,0.2l-0.2,0.3l-0.3,0.4c-0.2,0.2-0.4,0.4-0.6,0.5
			c-1.4,0.8-1.7,1.3-2.9,4.4l-1.8,4.7l-2.3,6l-1.6,4.4l-0.8,2.3l-0.4,1.1l-0.3,1c-0.1,0.7-0.6,1.2-1.2,1.6l-0.8,0.3
			c-0.7,0.3-1.3,0.7-1.8,1.2l-0.6,0.7l-0.3,0.2l-0.4,0.2l-0.5,0.3c0,0-0.1,0-0.2,0c-0.4,0-0.7-0.3-0.8-0.8l-0.2-0.8
			c-0.2-0.8-0.7-2.3-2.1-6l-2-5.3l-2-5.3l-1.7-4.4c-2-4.8-2.4-5.6-4.2-6c-0.6-0.1-0.8-0.2-0.8-0.5c0-0.3,0-0.3,0.1-0.4l0.4-0.3
			l0.4-0.4c0.1-0.1,0.4-0.2,1-0.2c0.2,0,0.4,0,0.9,0.1c1.4,0.1,2.9,0.2,4.5,0.2c1.9,0,4.4-0.1,6-0.2h0.7c0.4,0,0.7,0.2,0.7,0.4
			c0,0.1,0,0.1,0,0.2l-0.3,0.4l-0.4,0.4c-0.3,0.4-0.5,0.4-1.2,0.6c-1.4,0.2-2.1,1-2.1,2.2c0,0.9,0.3,1.9,1,4l1.5,4.1l1.8,5l1.6,4.3
			l0.3,0.7l0.1,0.4c0.1,0.3,0.1,0.7,0.2,1C220.2,87.7,220.3,87.2,220.5,86.7z"/>
		<path class="st1" d="M246.3,93.8c-0.2,0.2-0.6,0.4-0.9,0.4h-0.6c-0.5,0-1.1-0.1-1.9-0.1c-1.1,0-2-0.1-2.6-0.1
			c-0.6,0-1.6,0-2.9,0.1c-0.4,0-0.9,0-1.3,0.1c-0.4,0-0.8,0-0.9,0c-0.4,0-0.5-0.1-0.5-0.4c0-0.3,0-0.2,0.1-0.3l0.2-0.3l0.2-0.3
			c0.2-0.2,0.4-0.4,0.6-0.4c1.3-0.5,1.6-1.1,1.6-3.6c0-0.9,0-1.8,0-2.8l0-2.9l0-4.8v-0.6c0-3-0.1-3.4-0.7-3.8
			c-0.4-0.3-0.5-0.3-1.5-0.4c-0.4,0-0.6-0.2-0.6-0.4s0-0.2,0.1-0.3l0.3-0.3l0.4-0.4c0.3-0.2,0.6-0.3,0.9-0.3h1
			c1.5,0,2.9-0.4,4.2-1.2l0.7-0.4c0.1-0.1,0.3-0.1,0.4-0.1c0.3,0,0.6,0.2,0.8,0.4c0.1,0.1,0.1,0.3,0.1,0.4v0.3
			c-0.3,1.9-0.4,3.8-0.4,5.7l0,5l0,4.3c0,5.4,0.4,6.2,2.8,6.4c0.6,0,0.8,0.2,0.8,0.4c0,0.1,0,0.1,0,0.2l-0.3,0.3L246.3,93.8z
			 M238.4,67c-0.3-0.4-0.7-0.8-1-1.2c-0.1-0.2-0.3-0.3-0.4-0.5c-0.1-0.2-0.1-0.4-0.1-0.6c0-0.3,0.1-0.5,0.2-0.8
			c0.2-0.2,0.3-0.4,0.5-0.5c0.1-0.1,0.5-0.4,1.1-0.9c1.1-1,1.4-1.2,1.9-1.2c0.6,0,1.1,0.3,2,1.3c1.1,1.2,1.3,1.6,1.3,2.1
			s-0.3,1.2-1.3,2.3c-1,1.1-1.7,1.6-2.2,1.6c-0.4,0-0.8-0.2-1-0.6L238.4,67z"/>
		<path class="st1" d="M254.6,82c0,5.4,2.5,8.7,6.8,8.7c2.2,0,4.1-1,6-3.2c0.4-0.4,0.6-0.6,0.9-0.6c0.3,0,0.5,0.2,0.5,0.4
			c0,0,0,0,0,0c0,0.3-0.1,0.5-0.2,0.8c0,0.2-0.1,0.4-0.1,0.7c-0.1,0.7-0.3,0.9-1.1,1.8c-2.9,2.9-5.7,4.2-8.7,4.2
			c-6,0-10.1-4.7-10.1-11.5c0-7.4,5-13.3,11.3-13.3c5.2,0,8.6,3.8,8.6,9.4c0,0.7-0.1,1.1-0.4,1.3l-0.3,0.2l-0.4,0.3
			c-0.4,0.2-0.9,0.3-1.4,0.3c-0.3,0-0.6,0-0.8,0c-0.5,0-1.8,0-3.7,0h-4.1c-0.7,0-1.3,0-2.6,0L254.6,82z M260.3,78.9
			c1.6,0,1.9-0.2,1.9-1.5c0-2.6-1.4-4.4-3.5-4.4s-3.7,2.2-3.7,5.2c0,0.5,0.1,0.7,0.7,0.7c0.3,0,0.6,0,0.9,0h0.7l1.2,0H260.3
			L260.3,78.9z"/>
		<path class="st1" d="M286.3,82.8c-0.1,0.4-0.5,1.6-1.1,3.5c-0.7,2.2-1.1,3.4-1.1,3.7c-0.1,0.7-0.4,1.3-0.8,1.9
			c-0.2,0.3-0.3,0.4-1.3,1c-0.6,0.3-1.1,0.7-1.5,1.2c-0.5,0.4-0.8,0.7-1.2,0.7s-0.7-0.3-0.9-1.1c-0.1-0.3-0.1-0.7-0.2-1
			c-0.1-0.4-0.4-1.3-0.9-2.7l-1.9-5.7c-1.1-3.3-2.4-6.8-3.2-8.9c-0.3-0.6-0.6-1.2-1-1.7c-0.4-0.6-0.9-1.1-1.6-1.3
			c-0.5-0.2-0.7-0.3-0.7-0.5c0-0.2,0-0.2,0.1-0.3c0.2-0.1,0.3-0.2,0.4-0.4l0.5-0.4c0.2-0.2,0.4-0.2,0.7-0.2c0.2,0,0.3,0,0.9,0.1
			c1.2,0.1,2.1,0.1,3.6,0.1c1.3,0,2.7,0,4-0.2c0.6,0,1-0.1,1.2-0.1c0.4,0,0.7,0.2,0.7,0.4c0,0.2-0.1,0.3-0.2,0.4l-0.3,0.3l-0.3,0.4
			c-0.1,0.2-0.3,0.2-0.8,0.4c-0.9,0.1-1.6,1-1.5,2c0.1,1,0.3,2.1,0.6,3.1c0.2,0.8,0.6,2.1,1.2,3.9s1,3.2,1.2,4l0.6,1.9
			c0.1,0.3,0.2,0.7,0.2,1.1c0-0.3,0-0.7,0.2-1l0.6-1.8l1.2-4c1.2-3.8,1.4-4.5,1.4-5.6c0-1.4-0.3-1.9-1.3-2c-0.4,0-0.5-0.2-0.5-0.4
			c0-0.1,0-0.2,0-0.3l0.2-0.3l0.2-0.4c0.1-0.1,0.3-0.2,1.2-0.4c1.4-0.2,2.8-0.9,3.9-1.8c0.1-0.1,0.3-0.2,0.5-0.2
			c0.6,0,0.9,0.4,0.9,1.1v1c0,1.6,0.4,3.5,1.7,7.5c1.3,4.3,1.8,5.7,2.4,7.6c0.1,0.4,0.2,0.7,0.3,1.1c0-0.4,0.1-0.7,0.2-1l0.5-1.9
			l1.2-3.6c1-3.1,1.8-6.4,1.8-7.4c0-1.6-0.4-1.9-2.4-2.2c-0.4,0-0.7-0.2-0.7-0.5c0-0.3,0-0.2,0.1-0.2L296,71l0.4-0.4
			c0.2-0.1,0.5-0.2,0.8-0.2c0.2,0,0.5,0,0.8,0.1c0.9,0.1,1.8,0.2,2.7,0.2c0.9,0,1.8,0,2.6-0.1l0.9-0.1h0.2c0.4,0,0.5,0.1,0.5,0.4
			c0,0.2,0,0.2,0,0.2l-0.2,0.3l-0.3,0.4l-0.2,0.2l-0.5,0.3c-0.8,0.6-1.4,1.4-1.8,2.4c-0.6,1.2-0.9,2-2.2,6.1l-1.5,4.6
			c-0.6,1.8-1.2,3.6-1.6,5.3c-0.3,1-0.4,1.1-1.6,1.8c-0.7,0.4-1.4,0.9-1.9,1.6c-0.5,0.4-0.8,0.6-1.1,0.6c-0.5,0-0.6-0.2-0.9-1.3
			c-0.1-0.4-0.3-0.9-0.5-1.8c-0.4-1.1-0.8-2.6-1.4-4.6s-1-3.2-1.3-4c-0.4-0.9-0.7-1.9-0.9-2.8c0-0.1-0.1-0.3,0-0.4
			C286.9,80.7,286.7,81.8,286.3,82.8z"/>
		<polyline class="st2" points="170.3,43.4 156.1,29.1 141.8,43.4 		"/>
		<polyline class="st2" points="155,50.1 140.7,35.8 126.4,50.1 		"/>
		<polyline class="st2" points="183.4,50.1 169.2,35.8 154.9,50.1 		"/>
		<polyline class="st2" points="125.8,50.4 111.5,36.1 97.3,50.4 		"/>
		<polyline class="st2" points="110.4,57.1 96.2,42.8 81.9,57.1 		"/>
		<polyline class="st2" points="138.9,57.1 124.7,42.8 110.4,57.1 		"/>
		<polyline class="st2" points="214,50.4 199.8,36.1 185.5,50.4 		"/>
		<polyline class="st2" points="198.6,57.1 184.4,42.8 170.1,57.1 		"/>
		<polyline class="st2" points="227.1,57.1 212.9,42.8 198.6,57.1 		"/>
		<line class="st3" x1="48.2" y1="122.7" x2="264.6" y2="122.7"/>
		<path class="st0" d="M74.4,25.1c-0.9-1.1-2-2.3-3.8-1.5c-1.2,0.5-1.8,1.9-1.3,3.1c0,0.1,0.1,0.1,0.1,0.2c0.7,1.6,2.1,1.8,4,1.9
			c1.8,0,4.3,0,5.4,2.4c1,2.2,0,4.7-2.7,5.9c-0.7,0.3-1.4,0.5-2.2,0.6c-0.4,0-0.8,0-1.1,0c-0.7-0.9-1.4-1.9-2-2.9l0.6-0.4
			c0.9,1.1,2.7,2.7,4.7,1.8c1.3-0.5,2-1.9,1.6-3.2c0-0.1-0.1-0.3-0.2-0.4c-0.7-1.6-2.2-1.8-4.1-1.9c-1.5-0.1-4.1-0.1-5.2-2.5
			c-0.9-1.9-0.1-4.3,2.5-5.5c0.9-0.4,1.8-0.6,2.8-0.7c0.4,0.7,0.9,1.4,1.6,2.7L74.4,25.1z"/>
		<path class="st0" d="M90,31.3l-0.2-0.7c1.4-0.7,1.5-0.9,1-1.6l-2.3-2.8l-4.7,1.6c0,1,0,1.9,0,2.9c0,1.6,0.3,1.7,1.9,1.3l0.2,0.7
			l-4.7,1.6L81,33.6c1.3-0.7,1.6-0.9,1.7-3L83.3,18l0.6-0.4c2.5,3.1,5.5,6.9,8,10c1.2,1.6,1.6,1.6,3,1.3l0.2,0.7L90,31.3z
			 M83.9,20.4L83.9,20.4c-0.1,2.1-0.1,4.2-0.2,6.3l4-1.3L83.9,20.4z"/>
		<path class="st0" d="M98.9,13.6c2.8-0.7,5-0.6,6.6,0.4c1.5,1,2.6,2.5,3,4.3c0.6,2.3,0.1,4.7-1.3,6.5c-1.3,1.7-3.3,2.7-6,3.3
			l-5.2,1.2l-0.2-0.7c1.9-0.6,2.1-0.7,1.6-2.6l-2-8.8c-0.4-1.9-0.6-1.9-2.4-1.6l-0.2-0.7L98.9,13.6z M99.1,25.5
			c0.4,1.7,1.2,1.9,2.9,1.5c4.3-1,5.4-4.6,4.6-8c-0.5-2.2-1.9-4-4-4.6c-1.3-0.3-2.6-0.3-3.9,0.1c-0.6,0.1-1.3,0.3-1.8,0.7
			c-0.2,0.2-0.2,0.5,0,1.3L99.1,25.5z"/>
		<path class="st0" d="M115.7,10.3c2.9-0.4,5-0.2,6.6,0.9c1.4,1.1,2.4,2.7,2.6,4.5c0.5,2.3-0.2,4.7-1.8,6.4
			c-1.5,1.6-3.5,2.4-6.3,2.8l-5.3,0.8l-0.1-0.7c1.9-0.4,2.1-0.6,1.8-2.5l-1.3-8.9c-0.3-1.9-0.5-1.9-2.2-1.8l-0.1-0.7L115.7,10.3z
			 M115,22.2c0.3,1.7,1.1,2,2.8,1.7c4.3-0.7,5.8-4.1,5.3-7.6c-0.3-2.2-1.5-4.1-3.6-4.9c-1.3-0.4-2.6-0.5-3.9-0.3
			c-0.6,0-1.3,0.2-1.8,0.6c-0.2,0.2-0.2,0.4-0.1,1.3L115,22.2z"/>
		<path class="st0" d="M138.2,19c-0.1,0.7-0.4,2.9-0.5,3.6l-10.1,0.9l0-0.7c1.9-0.3,2-0.4,1.9-2.3l-0.8-8.9c-0.2-1.9-0.3-2-2.2-2
			l-0.1-0.7l5.8-0.5l0.1,0.7c-1.8,0.3-2,0.4-1.9,2.3l0.8,8.8c0.1,1.2,0.3,1.6,0.7,1.8c0.7,0.2,1.5,0.2,2.3,0.1
			c1.2-0.1,2-0.3,2.4-0.9c0.5-0.7,0.8-1.5,1-2.3L138.2,19z"/>
		<path class="st0" d="M150.9,18.4c-0.1,0.7-0.5,2.9-0.7,3.6l-10.9,0.4v-0.7c2.1-0.2,2.3-0.4,2.2-2.3l-0.3-8.9c-0.1-2-0.3-2-2.1-2.1
			V7.8l10-0.4c0,0.5,0.2,2.1,0.3,3.3l-0.7,0.1c-0.1-0.7-0.4-1.3-0.8-1.9c-0.3-0.5-0.9-0.6-2.5-0.6l-1.9,0.1c-0.7,0-0.7,0.1-0.7,0.7
			l0.2,5.1l2.2-0.1c2-0.1,2.1-0.3,2.3-1.8h0.7l0.2,4.3h-0.7c-0.4-1.6-0.5-1.7-2.5-1.6l-2.2,0.1l0.2,4.2c0,1.1,0.2,1.6,0.7,1.8
			s1.2,0.2,2.4,0.2c1.7-0.1,2.4-0.3,2.8-0.9c0.5-0.6,0.8-1.4,1-2.1L150.9,18.4z"/>
		<path class="st0" d="M160,14.1c2.1,0.4,3.8,1.4,3.8,3.6c0,1.5-0.9,2.8-2.2,3.4c-1.4,0.7-2.9,0.9-4.4,0.9l-4.9-0.1v-0.7
			c2-0.1,2.1-0.2,2.1-2.1l0.1-9.1c0-1.8-0.1-1.9-1.9-2.1V7.3l5.7,0.1c1.7,0,2.6,0.3,3.3,0.8c0.8,0.6,1.2,1.6,1.2,2.6
			C162.9,12.9,161.1,13.8,160,14.1L160,14.1z M156.1,19.2c0,1.6,0.4,2,1.9,2c2,0,3.7-0.9,3.7-3.2c0-2.4-1.6-3.3-4.3-3.3h-1.2
			L156.1,19.2z M157.4,13.8c2.5,0,3.6-0.9,3.6-2.8c0-1.4-0.8-2.8-3.1-2.9c-0.5,0-0.9,0-1.3,0.2c-0.2,0.2-0.3,0.4-0.3,1.1l-0.1,4.3
			L157.4,13.8z"/>
		<path class="st0" d="M178.5,23.3c-0.3,0-0.6,0-0.9-0.1c-1.4-0.2-2.3-0.7-3.3-2.2c-0.7-1.2-1.5-2.7-2-3.8c-0.4-0.7-0.7-0.9-2-1
			l-0.8-0.1l-0.2,3.5c-0.1,1.9,0.1,2,1.9,2.3l-0.1,0.7l-5.8-0.4l0-0.7c1.9,0,2.1-0.1,2.3-2l0.6-9c0.1-1.9-0.1-2-1.8-2.3l0-0.7
			l5.5,0.4c1.2,0,2.4,0.3,3.4,1c0.9,0.7,1.5,1.9,1.3,3c-0.1,2-1.4,3.1-3.1,3.7c0.3,0.8,1.2,2.3,1.8,3.4c0.5,0.8,1,1.6,1.7,2.4
			c0.4,0.6,1,1,1.6,1.2L178.5,23.3z M170.7,15.4c0.9,0.1,1.8,0,2.5-0.5c0.9-0.6,1.5-1.6,1.5-2.7c0.2-2.4-1.5-3.3-3.2-3.5
			c-0.4-0.1-0.8,0-1.2,0.1c-0.2,0.1-0.3,0.4-0.3,1l-0.4,5.5L170.7,15.4z"/>
		<path class="st0" d="M188.5,9.2c4,0.6,6.7,4.2,6.2,8.2c0,0.1,0,0.1,0,0.2c-0.7,4.9-4.4,7.4-8.5,6.8c-4-0.6-6.8-4.2-6.2-8.2
			c0-0.1,0-0.1,0-0.2C180.5,12,183.8,8.7,188.5,9.2L188.5,9.2z M187.8,10c-2.4-0.3-5.1,1.3-5.7,5.6s1.4,7.5,4.6,7.9
			c2.5,0.3,5.1-1.3,5.7-5.7C193,13.2,190.7,10.4,187.8,10L187.8,10z"/>
		<path class="st0" d="M206.3,12.4c3.9,0.9,6.4,4.8,5.5,8.7c0,0.1,0,0.1,0,0.2c-1,4.8-5,7-9,6.1c-3.9-0.9-6.4-4.8-5.5-8.7
			c0-0.1,0-0.1,0-0.2C198.2,14.4,201.8,11.4,206.3,12.4L206.3,12.4z M205.6,13.1c-2.4-0.5-5.2,0.9-6.1,5.1s0.8,7.6,3.9,8.3
			c2.5,0.5,5.2-0.9,6.1-5.2C210.6,16.7,208.5,13.8,205.6,13.1L205.6,13.1z"/>
		<path class="st0" d="M221.8,32.2c-1.1-2.5-2.2-5-3.5-8c-0.3-0.8-0.7-1-1.1-1l-1.3,4.1c-0.6,1.8-0.4,2,1.3,2.7l-0.2,0.7l-5.5-1.7
			l0.2-0.7c1.7,0.4,2,0.3,2.5-1.5l2.7-8.4c0.6-1.9,0.4-2.1-1.3-2.8l0.2-0.7l5.5,1.8l-0.2,0.7c-1.7-0.4-2-0.3-2.6,1.6l-1.2,3.7
			c0.6,0,1.2-0.1,1.8-0.5c1.7-0.8,3.3-1.7,4.8-2.7c0.8-0.6,0.9-0.7,0-1.2l-0.5-0.2l0.2-0.7L229,19l-0.2,0.7c-1.8-0.4-2.3-0.3-4,0.5
			c-1,0.4-3.1,1.5-5.1,2.6c1,2.5,2.6,6,3.2,7.4c0.8,1.5,1.2,1.9,2.2,2.3l-0.2,0.7L221.8,32.2z"/>
		<path class="st0" d="M237.6,34.8c-0.4,0.6-1.7,2.4-2.1,3l-10-4.3l0.3-0.6c2,0.7,2.2,0.6,2.9-1.1l3.5-8.2c0.8-1.8,0.6-1.9-1-2.8
			l0.3-0.6l9.2,4c-0.2,0.5-0.7,2-1.1,3.1l-0.7-0.2c0.2-0.7,0.2-1.4,0.1-2.1c-0.1-0.6-0.5-0.9-2-1.6l-1.8-0.8
			c-0.6-0.3-0.7-0.2-0.9,0.4l-2,4.7l2,0.9c1.9,0.8,2,0.7,2.9-0.6l0.7,0.3l-1.7,3.9l-0.7-0.3c0.4-1.6,0.3-1.7-1.5-2.5l-2-0.9
			l-1.7,3.8c-0.4,1-0.5,1.5-0.2,1.9c0.2,0.4,1,0.7,2.1,1.2c1.6,0.7,2.2,0.8,2.9,0.4c0.7-0.4,1.3-0.9,1.8-1.5L237.6,34.8z"/>
	</g>
</g>
</svg>
